[gd_scene load_steps=6 format=2]

[ext_resource path="res://assets/street_curve.obj" type="ArrayMesh" id=1]

[sub_resource type="BoxShape" id=1]

[sub_resource type="Curve3D" id=2]
_data = {
"points": PoolVector3Array( 0, 0, 0, 0, 0, 0, 5, 0, -2, 2.3, 0, -1.6, -2.3, 0, 1.6, 0.0218706, 0, -0.470198, 0, 0, 0, 0, 0, 0, -2, 0, 5 ),
"tilts": PoolRealArray( 0, 0, 0 )
}

[sub_resource type="BoxShape" id=3]

[sub_resource type="Curve3D" id=4]
_data = {
"points": PoolVector3Array( 0, 0, 0, 0, 0, 0, -2, 0, -5, 1, 0, -1.1, -1, 0, 1.1, -2.8, 0, -2.9, 0, 0, 0, 0, 0, 0, -5, 0, -2 ),
"tilts": PoolRealArray( 0, 0, 0 )
}

[node name="CurveLanes" type="Spatial"]

[node name="Helper" type="Spatial" parent="."]
visible = false

[node name="street_curve" type="MeshInstance" parent="Helper"]
mesh = ExtResource( 1 )
material/0 = null
material/1 = null
material/2 = null
material/3 = null
material/4 = null
material/5 = null
material/6 = null
material/7 = null
material/8 = null
material/9 = null
material/10 = null
material/11 = null
material/12 = null
material/13 = null
material/14 = null
material/15 = null
material/16 = null

[node name="PathTransmitterRight" type="Area" parent="."]
collision_layer = 256
collision_mask = 0

[node name="CollisionShape" type="CollisionShape" parent="PathTransmitterRight"]
transform = Transform( 1, 0, 0, 0, 1, 0, 0, 0, 1, 5, 1, -2 )
shape = SubResource( 1 )

[node name="Path1" type="Path" parent="PathTransmitterRight"]
curve = SubResource( 2 )

[node name="PathTransmitterLeft" type="Area" parent="."]
transform = Transform( -1, 0, 8.74228e-08, 0, 1, 0, -8.74228e-08, 0, -1, 0, 0, 0 )
collision_layer = 256
collision_mask = 0

[node name="CollisionShape" type="CollisionShape" parent="PathTransmitterLeft"]
transform = Transform( 1, 0, 0, 0, 1, 0, 0, 0, 1, -2, 1, -5 )
shape = SubResource( 3 )

[node name="Path" type="Path" parent="PathTransmitterLeft"]
curve = SubResource( 4 )
