[gd_scene load_steps=6 format=2]

[ext_resource path="res://assets/street_crossing.obj" type="ArrayMesh" id=1]
[ext_resource path="res://assets/grass.obj" type="ArrayMesh" id=2]
[ext_resource path="res://assets/street_straight.obj" type="ArrayMesh" id=3]
[ext_resource path="res://assets/street_curve.obj" type="ArrayMesh" id=4]
[ext_resource path="res://assets/street_t_crossing.obj" type="ArrayMesh" id=5]

[node name="GridMapCollection" type="Spatial"]

[node name="Grass" type="MeshInstance" parent="."]
mesh = ExtResource( 2 )
material/0 = null

[node name="Crossing" type="MeshInstance" parent="."]
transform = Transform( 1, 0, 0, 0, 1, 0, 0, 0, 1, 10, 0, 0 )
mesh = ExtResource( 1 )
material/0 = null
material/1 = null

[node name="Curve" type="MeshInstance" parent="."]
transform = Transform( 1, 0, 0, 0, 1, 0, 0, 0, 1, 10, 0, -10 )
mesh = ExtResource( 4 )
material/0 = null
material/1 = null
material/2 = null
material/3 = null
material/4 = null
material/5 = null
material/6 = null
material/7 = null
material/8 = null
material/9 = null
material/10 = null
material/11 = null
material/12 = null
material/13 = null
material/14 = null
material/15 = null
material/16 = null

[node name="Straight" type="MeshInstance" parent="."]
transform = Transform( 1, 0, 0, 0, 1, 0, 0, 0, 1, 10, 0, 10 )
mesh = ExtResource( 3 )
material/0 = null
material/1 = null

[node name="TCrossing" type="MeshInstance" parent="."]
transform = Transform( 1, 0, 0, 0, 1, 0, 0, 0, 1, 20, 0, 0 )
mesh = ExtResource( 5 )
material/0 = null
material/1 = null
