# Blender MTL File: 'car.blend'
# Material Count: 4

newmtl Material
Ns 323.999994
Ka 1.000000 1.000000 1.000000
Kd 0.353718 0.166288 0.800000
Ks 0.500000 0.500000 0.500000
Ke 0.000000 0.000000 0.000000
Ni 1.000000
d 1.000000
illum 2

newmtl Material.002
Ns 323.999994
Ka 1.000000 1.000000 1.000000
Kd 0.760147 0.913501 1.000000
Ks 0.500000 0.500000 0.500000
Ke 0.000000 0.000000 0.000000
Ni 1.000000
d 1.000000
illum 2

newmtl Material.004
Ns 323.999994
Ka 1.000000 1.000000 1.000000
Kd 0.020379 0.020379 0.020379
Ks 0.500000 0.500000 0.500000
Ke 0.000000 0.000000 0.000000
Ni 1.000000
d 1.000000
illum 2

newmtl None
Ns 500
Ka 0.8 0.8 0.8
Kd 0.8 0.8 0.8
Ks 0.8 0.8 0.8
d 1
illum 2
