# Blender MTL File: 'GroundTiles.blend'
# Material Count: 1

newmtl Grass
Ns 359.999993
Ka 1.000000 1.000000 1.000000
Kd 0.139153 0.281010 0.111749
Ks 0.500000 0.500000 0.500000
Ke 0.000000 0.000000 0.000000
Ni 1.000000
d 1.000000
illum 2
